[
  {
    "Id": 1,
    "Up": {
      "Letter": "P",
      "BodyPart": "Upper"
    },
    "Right": {
      "Letter": "G",
      "BodyPart": "Lower"
    },
    "Down": {
      "Letter": "B",
      "BodyPart": "Lower"
    },
    "Left": {
      "Letter": "O",
      "BodyPart": "Upper"
    }
  },
  {
    "Id": 2,
    "Up": {
      "Letter": "P",
      "BodyPart": "Upper"
    },
    "Right": {
      "Letter": "O",
      "BodyPart": "Lower"
    },
    "Down": {
      "Letter": "B",
      "BodyPart": "Lower"
    },
    "Left": {
      "Letter": "G",
      "BodyPart": "Upper"
    }
  },
  {
    "Id": 3,
    "Up": {
      "Letter": "O",
      "BodyPart": "Upper"
    },
    "Right": {
      "Letter": "B",
      "BodyPart": "Upper"
    },
    "Down": {
      "Letter": "G",
      "BodyPart": "Lower"
    },
    "Left": {
      "Letter": "P",
      "BodyPart": "Lower"
    }
  },
  {
    "Id": 4,
    "Up": {
      "Letter": "P",
      "BodyPart": "Upper"
    },
    "Right": {
      "Letter": "O",
      "BodyPart": "Lower"
    },
    "Down": {
      "Letter": "B",
      "BodyPart": "Lower"
    },
    "Left": {
      "Letter": "G",
      "BodyPart": "Upper"
    }
  },
  {
    "Id": 5,
    "Up": {
      "Letter": "G",
      "BodyPart": "Upper"
    },
    "Right": {
      "Letter": "O",
      "BodyPart": "Lower"
    },
    "Down": {
      "Letter": "P",
      "BodyPart": "Lower"
    },
    "Left": {
      "Letter": "B",
      "BodyPart": "Upper"
    }
  },
  {
    "Id": 6,
    "Up": {
      "Letter": "B",
      "BodyPart": "Upper"
    },
    "Right": {
      "Letter": "P",
      "BodyPart": "Lower"
    },
    "Down": {
      "Letter": "G",
      "BodyPart": "Lower"
    },
    "Left": {
      "Letter": "O",
      "BodyPart": "Upper"
    }
  },
  {
    "Id": 7,
    "Up": {
      "Letter": "O",
      "BodyPart": "Lower"
    },
    "Right": {
      "Letter": "O",
      "BodyPart": "Upper"
    },
    "Down": {
      "Letter": "P",
      "BodyPart": "Upper"
    },
    "Left": {
      "Letter": "P",
      "BodyPart": "Lower"
    }
  },
  {
    "Id": 8,
    "Up": {
      "Letter": "G",
      "BodyPart": "Lower"
    },
    "Right": {
      "Letter": "B",
      "BodyPart": "Lower"
    },
    "Down": {
      "Letter": "P",
      "BodyPart": "Upper"
    },
    "Left": {
      "Letter": "O",
      "BodyPart": "Upper"
    }
  },
  {
    "Id": 9,
    "Up": {
      "Letter": "B",
      "BodyPart": "Upper"
    },
    "Right": {
      "Letter": "P",
      "BodyPart": "Upper"
    },
    "Down": {
      "Letter": "G",
      "BodyPart": "Lower"
    },
    "Left": {
      "Letter": "O",
      "BodyPart": "Lower"
    }
  }
]